{
  "data": [
    {
      "ledgerid": 24135,
      "ledgerdatetime": "2020-04-14 17:25:42",
      "transactionid": "\u5b58\u6b3e",
      "status": "\u65b0\u4ea4\u6613",
      "amount": "5,000.00",
      "type": "\u4e2d\u56fd\u519c\u4e1a\u94f6\u884c"
    },
    {
      "ledgerid": 24118,
      "ledgerdatetime": "2020-04-09 17:55:14",
      "transactionid": "\u5b58\u6b3e",
      "status": "\u65b0\u4ea4\u6613",
      "amount": "100.00",
      "type": "\u4e2d\u56fd\u519c\u4e1a\u94f6\u884c"
    },
    {
      "ledgerid": 24060,
      "ledgerdatetime": "2020-03-31 15:59:04",
      "transactionid": "\u5b58\u6b3e",
      "status": "\u65b0\u4ea4\u6613",
      "amount": "10.00",
      "type": "\u4e2d\u56fd\u519c\u4e1a\u94f6\u884c"
    },
    {
      "ledgerid": 24059,
      "ledgerdatetime": "2020-03-31 15:58:37",
      "transactionid": "\u5b58\u6b3e",
      "status": "\u65b0\u4ea4\u6613",
      "amount": "666.00",
      "type": "\u865a\u62df\u8d27\u5e01"
    },
    {
      "ledgerid": 24037,
      "ledgerdatetime": "2020-03-27 11:27:12",
      "transactionid": "\u5b58\u6b3e",
      "status": "\u65b0\u4ea4\u6613",
      "amount": "666.00",
      "type": "\u865a\u62df\u8d27\u5e01"
    },
    {
      "ledgerid": 24036,
      "ledgerdatetime": "2020-03-27 11:25:02",
      "transactionid": "\u5b58\u6b3e",
      "status": "\u65b0\u4ea4\u6613",
      "amount": "666.00",
      "type": "\u865a\u62df\u8d27\u5e01"
    },
    {
      "ledgerid": 24035,
      "ledgerdatetime": "2020-03-27 11:18:24",
      "transactionid": "\u5b58\u6b3e",
      "status": "\u65b0\u4ea4\u6613",
      "amount": "666.00",
      "type": "\u865a\u62df\u8d27\u5e01"
    },
    {
      "ledgerid": 24034,
      "ledgerdatetime": "2020-03-27 11:16:12",
      "transactionid": "\u5b58\u6b3e",
      "status": "\u65b0\u4ea4\u6613",
      "amount": "666.00",
      "type": "\u865a\u62df\u8d27\u5e01"
    },
    {
      "ledgerid": 24033,
      "ledgerdatetime": "2020-03-27 11:07:42",
      "transactionid": "\u5b58\u6b3e",
      "status": "\u65b0\u4ea4\u6613",
      "amount": "666.00",
      "type": "\u865a\u62df\u8d27\u5e01"
    },
    {
      "ledgerid": 24032,
      "ledgerdatetime": "2020-03-27 11:04:43",
      "transactionid": "\u5b58\u6b3e",
      "status": "\u65b0\u4ea4\u6613",
      "amount": "666.00",
      "type": "\u865a\u62df\u8d27\u5e01"
    }
  ],
  "current_page": 1,
  "per_page": 10,
  "from": 1,
  "to": 10,
  "last_page": 9,
  "next_page_url": "http:\/\/www.eg990.com:8775\/api\/getTransaction?page=2",
  "prev_page_url": null,
  "total": 81
}